{
  "content_tags" : [ {
    "name" : "OTHER_INDUSTRY",
    "source" : "MARKETPLACE"
  }, {
    "name" : "COMPATIBLE_ANY",
    "source" : "MARKETPLACE"
  } ],
  "extra_classes" : "widget-type-post_filter",
  "global" : false,
  "master_language" : "en",
  "icon" : "fontawesome-5.14.0:Filter:SOLID",
  "host_template_types" : [ "ANY" ],
  "module_id" : 77551286674,
  "label" : "Post Filter Section - Bizphile",
  "is_available_for_new_content" : true
}