{
  "global" : false,
  "icon" : "fontawesome-5.14.0:Dot%20Circle:SOLID",
  "host_template_types" : [ "PAGE", "BLOG_POST", "BLOG_LISTING", "QUOTE" ],
  "module_id" : 76568147013,
  "label" : "Goal Success Section - Bizphile",
  "is_available_for_new_content" : true
}