{
  "background_color.default" : {
    "message" : "",
    "description" : null,
    "placeholders" : null
  },
  "background_color.help_text" : {
    "message" : "",
    "description" : null,
    "placeholders" : null
  },
  "background_color.inline_help_text" : {
    "message" : "",
    "description" : null,
    "placeholders" : null
  },
  "background_color.label" : {
    "message" : "Color",
    "description" : null,
    "placeholders" : null
  },
  "background_color.placeholder" : {
    "message" : "",
    "description" : null,
    "placeholders" : null
  },
  "expand_link_text.default" : {
    "message" : "Ver tudo",
    "description" : null,
    "placeholders" : null
  },
  "expand_link_text.label" : {
    "message" : "Texto a apresentar se estiver disponível mais do que o valor máximo a apresentar. Deixe em branco para omitir a ligação",
    "description" : null,
    "placeholders" : null
  },
  "filter_type.choices.author" : {
    "message" : "Autores",
    "description" : null,
    "placeholders" : null
  },
  "filter_type.choices.month" : {
    "message" : "Meses",
    "description" : null,
    "placeholders" : null
  },
  "filter_type.choices.tag" : {
    "message" : "Etiquetas",
    "description" : null,
    "placeholders" : null
  },
  "filter_type.label" : {
    "message" : "Lista de valores para ligações de filtros",
    "description" : null,
    "placeholders" : null
  },
  "filter_type.placeholder" : {
    "message" : "Pesquisa",
    "description" : null,
    "placeholders" : null
  },
  "list_title.default" : {
    "message" : "Publicar por etiqueta",
    "description" : null,
    "placeholders" : null
  },
  "list_title.label" : {
    "message" : "Lista de títulos a apresentar",
    "description" : null,
    "placeholders" : null
  },
  "max_links.label" : {
    "message" : "Número máximo de valores de filtros a apresentar. Deixe em branco para ver tudo",
    "description" : null,
    "placeholders" : null
  },
  "name" : {
    "message" : "Post Filter Section",
    "description" : null,
    "placeholders" : null
  },
  "order_by.choices.name" : {
    "message" : "Nome",
    "description" : null,
    "placeholders" : null
  },
  "order_by.choices.post_count" : {
    "message" : "Contagem de publicações",
    "description" : null,
    "placeholders" : null
  },
  "order_by.label" : {
    "message" : "Ordenação de valores para ligações de filtros",
    "description" : null,
    "placeholders" : null
  },
  "order_by.placeholder" : {
    "message" : "Pesquisa",
    "description" : null,
    "placeholders" : null
  },
  "select_blog.help_text" : {
    "message" : "A predefinição utilizará o blog atual quando utilizado no modelo de um blog ou no blog principal quando utilizado em qualquer outro lugar.",
    "description" : null,
    "placeholders" : null
  },
  "select_blog.label" : {
    "message" : "Selecione o blog a apresentar",
    "description" : null,
    "placeholders" : null
  },
  "show_all_filters.label" : {
    "message" : "Mostrar todos os filtros",
    "description" : "",
    "placeholders" : null
  }
}