[ {
  "id" : "9fb4c08f-7f4d-8330-8b60-9d92cb6621c4",
  "name" : "style",
  "display_width" : null,
  "label" : "Style",
  "required" : false,
  "locked" : false,
  "children" : [ {
    "id" : "ace56986-e770-15d9-ef0e-1581fe44ba23",
    "name" : "background_options",
    "display_width" : null,
    "label" : "Background Options",
    "required" : false,
    "locked" : false,
    "display" : "select",
    "choices" : [ [ "background_color", "Background Color" ], [ "background_image", "Background Image" ], [ "background_gradient", "Background Gradient" ] ],
    "multiple" : false,
    "reordering_enabled" : true,
    "preset" : null,
    "type" : "choice"
  }, {
    "id" : "8636dc85-341f-57d2-4e55-414ba0212369",
    "name" : "background_color",
    "display_width" : null,
    "label" : "Background Color",
    "required" : false,
    "locked" : false,
    "visibility" : {
      "controlling_field" : "ace56986-e770-15d9-ef0e-1581fe44ba23",
      "controlling_field_path" : null,
      "controlling_value_regex" : "background_color",
      "property" : null,
      "operator" : "MATCHES_REGEX",
      "access" : null,
      "hidden_subfields" : null
    },
    "type" : "color",
    "default" : {
      "color" : "#fff",
      "opacity" : 0
    }
  }, {
    "id" : "71773d80-15e1-c1c7-bdda-60b75d66f4b3",
    "name" : "background_image",
    "display_width" : null,
    "label" : "Background image",
    "required" : false,
    "locked" : false,
    "visibility" : {
      "controlling_field" : "ace56986-e770-15d9-ef0e-1581fe44ba23",
      "controlling_field_path" : null,
      "controlling_value_regex" : "background_image",
      "property" : null,
      "operator" : "MATCHES_REGEX",
      "access" : null,
      "hidden_subfields" : null
    },
    "type" : "backgroundimage",
    "default" : {
      "src" : "",
      "background_position" : "MIDDLE_CENTER",
      "background_size" : "cover"
    }
  }, {
    "id" : "7af78e5a-eff7-0d09-d99c-55346f14a7bc",
    "name" : "background_gradient",
    "display_width" : null,
    "label" : "Background Gradient",
    "required" : false,
    "locked" : false,
    "visibility" : {
      "controlling_field" : "ace56986-e770-15d9-ef0e-1581fe44ba23",
      "controlling_field_path" : null,
      "controlling_value_regex" : "background_gradient",
      "property" : null,
      "operator" : "MATCHES_REGEX",
      "access" : null,
      "hidden_subfields" : null
    },
    "type" : "gradient",
    "default" : { }
  }, {
    "id" : "544eae94-2181-d633-54f3-f11a22c3b682",
    "name" : "spacing_desktop_",
    "display_width" : null,
    "label" : "Spacing [ Desktop ]",
    "required" : false,
    "locked" : false,
    "type" : "spacing",
    "default" : { }
  }, {
    "id" : "350b029b-e3d4-efb2-27b8-6a78c829be51",
    "name" : "spacing_tablet_",
    "display_width" : null,
    "label" : "Spacing [ Tablet ]",
    "required" : false,
    "locked" : false,
    "type" : "spacing",
    "default" : { }
  }, {
    "id" : "daef047c-1304-2d96-ada3-42116bd0368a",
    "name" : "spacing_mobile_",
    "display_width" : null,
    "label" : "Spacing [ Mobile ]",
    "required" : false,
    "locked" : false,
    "type" : "spacing",
    "default" : { }
  }, {
    "id" : "82ecc154-891c-225a-dbc6-92fc69781dba",
    "name" : "add_overlay_",
    "display_width" : null,
    "label" : "Add Overlay?",
    "required" : false,
    "locked" : false,
    "display" : "checkbox",
    "type" : "boolean",
    "default" : false
  }, {
    "id" : "2402b680-6747-8301-0724-1a01eca93224",
    "name" : "overlay_color",
    "display_width" : null,
    "label" : "Overlay Color",
    "required" : false,
    "locked" : false,
    "visibility" : {
      "controlling_field" : "82ecc154-891c-225a-dbc6-92fc69781dba",
      "controlling_field_path" : null,
      "controlling_value_regex" : "true",
      "property" : null,
      "operator" : "EQUAL",
      "access" : null,
      "hidden_subfields" : null
    },
    "type" : "color",
    "default" : {
      "color" : "#fff",
      "opacity" : 0
    }
  } ],
  "tab" : "STYLE",
  "expanded" : false,
  "type" : "group",
  "default" : {
    "background_color" : {
      "color" : "#fff",
      "opacity" : 0
    },
    "background_image" : {
      "src" : "",
      "background_position" : "MIDDLE_CENTER",
      "background_size" : "cover"
    },
    "background_gradient" : { },
    "spacing_desktop_" : { },
    "spacing_tablet_" : { },
    "spacing_mobile_" : { },
    "add_overlay_" : false,
    "overlay_color" : {
      "color" : "#fff",
      "opacity" : 0
    }
  }
}, {
  "id" : "6f8101c1-5643-6928-8813-3a0e3b8bb49b",
  "name" : "sub_title",
  "display_width" : null,
  "label" : "Sub Title",
  "required" : false,
  "locked" : false,
  "validation_regex" : "",
  "allow_new_line" : false,
  "show_emoji_picker" : false,
  "type" : "text",
  "default" : "WHO WE ARE"
}, {
  "id" : "d53a1dd1-0e12-a46c-694b-0977d1f2eec3",
  "name" : "sub_title_color",
  "display_width" : null,
  "label" : "Sub Title Color",
  "required" : false,
  "locked" : false,
  "type" : "color",
  "default" : {
    "color" : "#fe5150",
    "opacity" : 100
  }
}, {
  "id" : "aa0d430e-226c-8e2c-57e1-063a975648d5",
  "name" : "title",
  "display_width" : null,
  "label" : "Title",
  "required" : false,
  "locked" : false,
  "validation_regex" : "",
  "allow_new_line" : false,
  "show_emoji_picker" : false,
  "type" : "text",
  "default" : "Lorem ipsum dolor sit amet"
}, {
  "id" : "9f5c5644-b824-6f31-1ca1-f8ba59bfd355",
  "name" : "title_color",
  "display_width" : null,
  "label" : "Title Color",
  "required" : false,
  "locked" : false,
  "type" : "color",
  "default" : {
    "color" : "#333652",
    "opacity" : 100
  }
}, {
  "id" : "790220e4-583f-9880-c186-640063be35c4",
  "name" : "text",
  "display_width" : null,
  "label" : "Text",
  "required" : false,
  "locked" : false,
  "type" : "richtext",
  "default" : "<p>We are passionate about growing business, and do this through our own highly experienced and capable consultants who have tremendous business acumen. You will benefit from this passion &amp; commitment.</p>\n<p>The highest accolade available to professional consultants. It is the endorsement of a competent, confident and credible consultant. Expert services delivered by highly qualified and personable Business Consultants</p>"
}, {
  "id" : "b673b16d-3e87-9db7-b499-e13c9d1e05a7",
  "name" : "text_color",
  "display_width" : null,
  "label" : "Text Color",
  "required" : false,
  "locked" : false,
  "type" : "color",
  "default" : {
    "color" : "#7a8a9e",
    "opacity" : 100
  }
}, {
  "id" : "4790218c-76a7-95d4-0738-13613134040f",
  "name" : "button_group",
  "display_width" : null,
  "label" : "Button Group",
  "required" : false,
  "locked" : false,
  "occurrence" : {
    "min" : null,
    "max" : null,
    "sorting_label_field" : null,
    "default" : null
  },
  "children" : [ {
    "id" : "590b758e-6f0e-b18f-7d10-ffa3d8f4d52c",
    "name" : "button_options",
    "display_width" : null,
    "label" : "Button Options",
    "required" : false,
    "locked" : false,
    "display" : "select",
    "choices" : [ [ "primartbtn", "Primary Button" ], [ "secbutton", "Secondary Button" ] ],
    "multiple" : false,
    "reordering_enabled" : true,
    "preset" : null,
    "type" : "choice",
    "default" : "primartbtn"
  }, {
    "id" : "eb8b0ae3-7c83-9d09-9534-3b6085763bc2",
    "name" : "button_text",
    "display_width" : null,
    "label" : "Button Text",
    "required" : false,
    "locked" : false,
    "validation_regex" : "",
    "allow_new_line" : false,
    "show_emoji_picker" : false,
    "type" : "text",
    "default" : "Geat A Quote"
  }, {
    "id" : "8d99c75f-6ac6-2944-40d6-8b39178ed299",
    "name" : "button_link",
    "display_width" : null,
    "label" : "Button Link",
    "required" : false,
    "locked" : false,
    "supported_types" : [ "EXTERNAL", "CONTENT", "FILE", "EMAIL_ADDRESS", "BLOG" ],
    "show_advanced_rel_options" : false,
    "type" : "link",
    "default" : {
      "url" : {
        "content_id" : null,
        "type" : "EXTERNAL",
        "href" : ""
      },
      "open_in_new_tab" : false,
      "no_follow" : false
    }
  } ],
  "tab" : "CONTENT",
  "expanded" : false,
  "type" : "group",
  "default" : {
    "button_options" : "primartbtn",
    "button_text" : "Geat A Quote",
    "button_link" : {
      "url" : {
        "content_id" : null,
        "type" : "EXTERNAL",
        "href" : ""
      },
      "open_in_new_tab" : false,
      "no_follow" : false
    }
  }
}, {
  "id" : "283be456-a1ba-8428-362d-73a0eb4fd5af",
  "name" : "right_image",
  "display_width" : null,
  "label" : "Right Image",
  "required" : false,
  "locked" : false,
  "responsive" : true,
  "resizable" : true,
  "show_loading" : false,
  "type" : "image",
  "default" : {
    "size_type" : "auto",
    "src" : "https://2720327.fs1.hubspotusercontent-na1.net/hubfs/2720327/Assets%20-%20Axacus/Images/tm-colbg05.jpg",
    "alt" : "tm-colbg05",
    "loading" : "lazy",
    "width" : 504,
    "height" : 479,
    "max_width" : 504,
    "max_height" : 479
  }
}, {
  "id" : "cdcd9390-63e2-59df-7e4b-c35fe7aea8fd",
  "name" : "counter_group",
  "display_width" : null,
  "label" : "Counter Group",
  "required" : false,
  "locked" : false,
  "occurrence" : {
    "min" : null,
    "max" : null,
    "sorting_label_field" : null,
    "default" : null
  },
  "children" : [ {
    "id" : "c922e003-c518-a47b-e285-b0d5f061dcb3",
    "name" : "counter_number",
    "display_width" : null,
    "label" : "Counter Number",
    "required" : false,
    "locked" : false,
    "validation_regex" : "",
    "allow_new_line" : false,
    "show_emoji_picker" : false,
    "type" : "text",
    "default" : "1178"
  }, {
    "id" : "208e3db9-d167-fb3b-4ef9-1d9066a741aa",
    "name" : "counter_color",
    "display_width" : null,
    "label" : "Counter Color",
    "required" : false,
    "locked" : false,
    "type" : "color",
    "default" : {
      "color" : "#333652",
      "opacity" : 100
    }
  }, {
    "id" : "87b856f2-6d03-6da3-28e7-f494d8449f4f",
    "name" : "image_or_icon_code",
    "display_width" : null,
    "label" : "Image Or Icon Code",
    "required" : false,
    "locked" : false,
    "display" : "select",
    "choices" : [ [ "image", "Image" ], [ "icon", "Icon" ] ],
    "multiple" : false,
    "reordering_enabled" : true,
    "preset" : null,
    "type" : "choice",
    "default" : "icon"
  }, {
    "id" : "bfee564d-1839-50fb-0f73-8e5a265107d4",
    "name" : "image",
    "display_width" : null,
    "label" : "Image",
    "required" : false,
    "locked" : false,
    "visibility" : {
      "controlling_field" : "87b856f2-6d03-6da3-28e7-f494d8449f4f",
      "controlling_field_path" : null,
      "controlling_value_regex" : "image",
      "property" : null,
      "operator" : "MATCHES_REGEX",
      "access" : null,
      "hidden_subfields" : null
    },
    "responsive" : true,
    "resizable" : true,
    "show_loading" : false,
    "type" : "image",
    "default" : {
      "size_type" : "auto",
      "src" : "",
      "alt" : null,
      "loading" : "lazy"
    }
  }, {
    "id" : "980c329f-dccf-dc48-5477-0b63e3db3474",
    "name" : "icon_code",
    "display_width" : null,
    "label" : "Icon Code",
    "required" : false,
    "locked" : false,
    "validation_regex" : "",
    "visibility" : {
      "controlling_field" : "87b856f2-6d03-6da3-28e7-f494d8449f4f",
      "controlling_field_path" : null,
      "controlling_value_regex" : "icon",
      "property" : null,
      "operator" : "MATCHES_REGEX",
      "access" : null,
      "hidden_subfields" : null
    },
    "allow_new_line" : false,
    "show_emoji_picker" : false,
    "type" : "text",
    "default" : "<i class=\"kw_axacus flaticon-bussiness-man\"></i>"
  }, {
    "id" : "ac2c1147-e08e-eb6d-ad63-ebaf85f489e9",
    "name" : "counter_icon_color",
    "display_width" : null,
    "label" : "Counter Icon Color",
    "required" : false,
    "locked" : false,
    "type" : "color",
    "default" : {
      "color" : "#fe5150",
      "opacity" : 100
    }
  }, {
    "id" : "78fc0211-1846-20a4-8d50-7b8c2dd84ebe",
    "name" : "text",
    "display_width" : null,
    "label" : "Text",
    "required" : false,
    "locked" : false,
    "validation_regex" : "",
    "allow_new_line" : false,
    "show_emoji_picker" : false,
    "type" : "text",
    "default" : "Account Number"
  }, {
    "id" : "087ccfe8-ee5c-e34e-4134-faac7e79ad72",
    "name" : "text_color",
    "display_width" : null,
    "label" : "Text Color",
    "required" : false,
    "locked" : false,
    "type" : "color",
    "default" : {
      "color" : "#7a8a9e",
      "opacity" : 100
    }
  } ],
  "tab" : "CONTENT",
  "expanded" : false,
  "type" : "group",
  "default" : {
    "counter_number" : "1178",
    "counter_color" : {
      "color" : "#333652",
      "opacity" : 100
    },
    "image_or_icon_code" : "icon",
    "image" : {
      "size_type" : "auto",
      "src" : "",
      "alt" : null,
      "loading" : "lazy"
    },
    "icon_code" : "<i class=\"kw_axacus flaticon-bussiness-man\"></i>",
    "counter_icon_color" : {
      "color" : "#fe5150",
      "opacity" : 100
    },
    "text" : "Account Number",
    "text_color" : {
      "color" : "#7a8a9e",
      "opacity" : 100
    }
  }
} ]