[ {
  "id" : "9fb4c08f-7f4d-8330-8b60-9d92cb6621c4",
  "name" : "style",
  "display_width" : null,
  "label" : "Style",
  "required" : false,
  "locked" : false,
  "children" : [ {
    "id" : "ace56986-e770-15d9-ef0e-1581fe44ba23",
    "name" : "background_options",
    "display_width" : null,
    "label" : "Background Options",
    "required" : false,
    "locked" : false,
    "display" : "select",
    "choices" : [ [ "background_color", "Background Color" ], [ "background_image", "Background Image" ], [ "background_gradient", "Background Gradient" ] ],
    "multiple" : false,
    "reordering_enabled" : true,
    "preset" : null,
    "type" : "choice"
  }, {
    "id" : "8636dc85-341f-57d2-4e55-414ba0212369",
    "name" : "background_color",
    "display_width" : null,
    "label" : "Background Color",
    "required" : false,
    "locked" : false,
    "visibility" : {
      "controlling_field" : "ace56986-e770-15d9-ef0e-1581fe44ba23",
      "controlling_field_path" : null,
      "controlling_value_regex" : "background_color",
      "property" : null,
      "operator" : "MATCHES_REGEX",
      "access" : null,
      "hidden_subfields" : null
    },
    "type" : "color",
    "default" : {
      "color" : "#fff",
      "opacity" : 0
    }
  }, {
    "id" : "71773d80-15e1-c1c7-bdda-60b75d66f4b3",
    "name" : "background_image",
    "display_width" : null,
    "label" : "Background image",
    "required" : false,
    "locked" : false,
    "visibility" : {
      "controlling_field" : "ace56986-e770-15d9-ef0e-1581fe44ba23",
      "controlling_field_path" : null,
      "controlling_value_regex" : "background_image",
      "property" : null,
      "operator" : "MATCHES_REGEX",
      "access" : null,
      "hidden_subfields" : null
    },
    "type" : "backgroundimage",
    "default" : {
      "src" : "",
      "background_position" : "MIDDLE_CENTER",
      "background_size" : "cover"
    }
  }, {
    "id" : "7af78e5a-eff7-0d09-d99c-55346f14a7bc",
    "name" : "background_gradient",
    "display_width" : null,
    "label" : "Background Gradient",
    "required" : false,
    "locked" : false,
    "visibility" : {
      "controlling_field" : "ace56986-e770-15d9-ef0e-1581fe44ba23",
      "controlling_field_path" : null,
      "controlling_value_regex" : "background_gradient",
      "property" : null,
      "operator" : "MATCHES_REGEX",
      "access" : null,
      "hidden_subfields" : null
    },
    "type" : "gradient",
    "default" : { }
  }, {
    "id" : "544eae94-2181-d633-54f3-f11a22c3b682",
    "name" : "spacing_desktop_",
    "display_width" : null,
    "label" : "Spacing [ Desktop ]",
    "required" : false,
    "locked" : false,
    "type" : "spacing",
    "default" : {
      "margin" : {
        "top" : {
          "value" : -45,
          "units" : "px"
        },
        "bottom" : {
          "value" : null,
          "units" : null
        }
      },
      "padding" : {
        "top" : {
          "value" : 0,
          "units" : "px"
        },
        "bottom" : {
          "value" : 91,
          "units" : "px"
        },
        "left" : {
          "value" : null,
          "units" : null
        },
        "right" : {
          "value" : null,
          "units" : null
        }
      }
    }
  }, {
    "id" : "350b029b-e3d4-efb2-27b8-6a78c829be51",
    "name" : "spacing_tablet_",
    "display_width" : null,
    "label" : "Spacing [ Tablet ]",
    "required" : false,
    "locked" : false,
    "type" : "spacing",
    "default" : { }
  }, {
    "id" : "daef047c-1304-2d96-ada3-42116bd0368a",
    "name" : "spacing_mobile_",
    "display_width" : null,
    "label" : "Spacing [ Mobile ]",
    "required" : false,
    "locked" : false,
    "type" : "spacing",
    "default" : {
      "padding" : {
        "top" : {
          "value" : null,
          "units" : null
        },
        "bottom" : {
          "value" : 60,
          "units" : "px"
        },
        "left" : {
          "value" : null,
          "units" : null
        },
        "right" : {
          "value" : null,
          "units" : null
        }
      }
    }
  }, {
    "id" : "82ecc154-891c-225a-dbc6-92fc69781dba",
    "name" : "add_overlay_",
    "display_width" : null,
    "label" : "Add Overlay?",
    "required" : false,
    "locked" : false,
    "display" : "checkbox",
    "type" : "boolean",
    "default" : false
  }, {
    "id" : "2402b680-6747-8301-0724-1a01eca93224",
    "name" : "overlay_color",
    "display_width" : null,
    "label" : "Overlay Color",
    "required" : false,
    "locked" : false,
    "visibility" : {
      "controlling_field" : "82ecc154-891c-225a-dbc6-92fc69781dba",
      "controlling_field_path" : null,
      "controlling_value_regex" : "true",
      "property" : null,
      "operator" : "EQUAL",
      "access" : null,
      "hidden_subfields" : null
    },
    "type" : "color",
    "default" : {
      "color" : "#fff",
      "opacity" : 0
    }
  } ],
  "tab" : "STYLE",
  "expanded" : false,
  "type" : "group",
  "default" : {
    "background_color" : {
      "color" : "#fff",
      "opacity" : 0
    },
    "background_image" : {
      "src" : "",
      "background_position" : "MIDDLE_CENTER",
      "background_size" : "cover"
    },
    "background_gradient" : { },
    "spacing_desktop_" : {
      "margin" : {
        "top" : {
          "value" : -45,
          "units" : "px"
        },
        "bottom" : {
          "value" : null,
          "units" : null
        }
      },
      "padding" : {
        "top" : {
          "value" : 0,
          "units" : "px"
        },
        "bottom" : {
          "value" : 91,
          "units" : "px"
        },
        "left" : {
          "value" : null,
          "units" : null
        },
        "right" : {
          "value" : null,
          "units" : null
        }
      }
    },
    "spacing_tablet_" : { },
    "spacing_mobile_" : {
      "padding" : {
        "top" : {
          "value" : null,
          "units" : null
        },
        "bottom" : {
          "value" : 60,
          "units" : "px"
        },
        "left" : {
          "value" : null,
          "units" : null
        },
        "right" : {
          "value" : null,
          "units" : null
        }
      }
    },
    "add_overlay_" : false,
    "overlay_color" : {
      "color" : "#fff",
      "opacity" : 0
    }
  }
}, {
  "id" : "f07dc442-9de5-7067-24f9-ddf14fb6e87b",
  "name" : "image",
  "display_width" : null,
  "label" : "Image",
  "required" : false,
  "locked" : false,
  "responsive" : true,
  "resizable" : true,
  "show_loading" : false,
  "type" : "image",
  "default" : {
    "size_type" : "auto",
    "src" : "https://2720327.fs1.hubspotusercontent-na1.net/hubfs/2720327/Assets%20-%20Axacus/Images/tm-single07-500x750.jpg",
    "alt" : "tm-single07-500x750",
    "loading" : "lazy",
    "width" : 500,
    "height" : 750,
    "max_width" : 500,
    "max_height" : 750
  }
}, {
  "id" : "40abe55a-86b6-f4be-944f-3f17231057d4",
  "name" : "background_color",
  "display_width" : null,
  "label" : "Background Color",
  "required" : false,
  "locked" : false,
  "type" : "color",
  "default" : {
    "color" : "#ebf5f5",
    "opacity" : 100
  }
}, {
  "id" : "fb5e0be4-274d-db54-1ef2-1bd2fe33f518",
  "name" : "sub_title",
  "display_width" : null,
  "label" : "Sub Title",
  "required" : false,
  "locked" : false,
  "validation_regex" : "",
  "allow_new_line" : false,
  "show_emoji_picker" : false,
  "type" : "text",
  "default" : "OUR BENEFITS"
}, {
  "id" : "0d6f7176-f85b-3f6e-3aa7-012d866e0ebb",
  "name" : "sub_title_color",
  "display_width" : null,
  "label" : "Sub Title Color",
  "required" : false,
  "locked" : false,
  "type" : "color",
  "default" : {
    "color" : "#fe5150",
    "opacity" : 100
  }
}, {
  "id" : "ec679390-44be-3835-8878-73fae997e1ad",
  "name" : "title",
  "display_width" : null,
  "label" : "Title",
  "required" : false,
  "locked" : false,
  "validation_regex" : "",
  "allow_new_line" : false,
  "show_emoji_picker" : false,
  "type" : "text",
  "default" : "Lorem ipsum dolor"
}, {
  "id" : "8b912ef5-3d2e-adee-0432-4001a5b080dd",
  "name" : "title_color",
  "display_width" : null,
  "label" : "Title Color",
  "required" : false,
  "locked" : false,
  "type" : "color",
  "default" : {
    "color" : "#333652",
    "opacity" : 100
  }
}, {
  "id" : "fc5b2653-f2a1-8e90-c1ce-2f9d5da82b69",
  "name" : "text",
  "display_width" : null,
  "label" : "Text",
  "required" : false,
  "locked" : false,
  "type" : "richtext",
  "default" : "<p>We cover each area of focus has a dedicated action plan and a senior sponsor. We meet once a month to monitor progress and share ideas. We also take part in external events many of which we host.</p>"
}, {
  "id" : "16950d28-f7fd-72e3-8996-35836088306b",
  "name" : "text_color",
  "display_width" : null,
  "label" : "Text Color",
  "required" : false,
  "locked" : false,
  "type" : "color",
  "default" : {
    "color" : "#7a8a9e",
    "opacity" : 100
  }
}, {
  "id" : "1babd57a-ded3-d0b0-d69a-dc47d0a017e1",
  "name" : "list_group",
  "display_width" : null,
  "label" : "List Group",
  "required" : false,
  "locked" : false,
  "occurrence" : {
    "min" : null,
    "max" : null,
    "sorting_label_field" : "4981033a-5bd4-bfc5-1ab7-6bf5050b0ef7",
    "default" : null
  },
  "children" : [ {
    "id" : "1ceb14fe-40ed-ea20-dd3f-a2dfed385299",
    "name" : "image_or_icon",
    "display_width" : null,
    "label" : "Image OR Icon",
    "required" : false,
    "locked" : false,
    "display" : "select",
    "choices" : [ [ "image", "Image" ], [ "icon", "Icon" ] ],
    "multiple" : false,
    "reordering_enabled" : true,
    "preset" : null,
    "type" : "choice",
    "default" : "image"
  }, {
    "id" : "ee70c80b-58ba-5258-cce1-29ca7c73d04d",
    "name" : "icon_text",
    "display_width" : null,
    "label" : "Icon Text",
    "required" : false,
    "locked" : false,
    "validation_regex" : "",
    "visibility" : {
      "controlling_field" : "1ceb14fe-40ed-ea20-dd3f-a2dfed385299",
      "controlling_field_path" : null,
      "controlling_value_regex" : "icon",
      "property" : null,
      "operator" : "MATCHES_REGEX",
      "access" : null,
      "hidden_subfields" : null
    },
    "allow_new_line" : false,
    "show_emoji_picker" : false,
    "type" : "text",
    "default" : "<i class=\"themifyicon ti-check-box\"></i>"
  }, {
    "id" : "18332149-95c3-0dd6-b868-dea8747b0ad4",
    "name" : "icon_color",
    "display_width" : null,
    "label" : "Icon Color",
    "required" : false,
    "locked" : false,
    "visibility" : {
      "controlling_field" : "1ceb14fe-40ed-ea20-dd3f-a2dfed385299",
      "controlling_field_path" : null,
      "controlling_value_regex" : "icon",
      "property" : null,
      "operator" : "MATCHES_REGEX",
      "access" : null,
      "hidden_subfields" : null
    },
    "type" : "color",
    "default" : {
      "color" : "#fe5150",
      "opacity" : 100
    }
  }, {
    "id" : "9c7e0c2b-7eb4-a594-56ea-811f96250844",
    "name" : "image",
    "display_width" : null,
    "label" : "Image",
    "required" : false,
    "locked" : false,
    "visibility" : {
      "controlling_field" : "1ceb14fe-40ed-ea20-dd3f-a2dfed385299",
      "controlling_field_path" : null,
      "controlling_value_regex" : "image",
      "property" : null,
      "operator" : "MATCHES_REGEX",
      "access" : null,
      "hidden_subfields" : null
    },
    "responsive" : true,
    "resizable" : true,
    "show_loading" : false,
    "type" : "image",
    "default" : {
      "size_type" : "auto",
      "src" : "https://2720327.fs1.hubspotusercontent-na1.net/hubfs/2720327/Assets%20-%20Axacus/Images/Right-Tick.png",
      "alt" : "Right-Tick",
      "loading" : "lazy",
      "width" : 31,
      "height" : 34,
      "max_width" : 31,
      "max_height" : 34
    }
  }, {
    "id" : "4981033a-5bd4-bfc5-1ab7-6bf5050b0ef7",
    "name" : "title",
    "display_width" : null,
    "label" : "Title",
    "required" : false,
    "locked" : false,
    "validation_regex" : "",
    "allow_new_line" : false,
    "show_emoji_picker" : false,
    "type" : "text",
    "default" : "We’re Certified"
  }, {
    "id" : "4b5e533f-78ff-14ee-178b-881287228ac6",
    "name" : "title_color",
    "display_width" : null,
    "label" : "Title Color",
    "required" : false,
    "locked" : false,
    "type" : "color",
    "default" : {
      "color" : "#333652",
      "opacity" : 100
    }
  }, {
    "id" : "48eb5bb9-3c5c-b8b6-4d32-d27c3046fc92",
    "name" : "text",
    "display_width" : null,
    "label" : "Text",
    "required" : false,
    "locked" : false,
    "type" : "richtext",
    "default" : "<p>We are awarded &amp; certified by FDAS foundation</p>"
  }, {
    "id" : "12b4b9a6-d912-5dac-7e80-4163490a9af3",
    "name" : "text_color",
    "display_width" : null,
    "label" : "Text Color",
    "required" : false,
    "locked" : false,
    "type" : "color",
    "default" : {
      "color" : "#7a8a9e",
      "opacity" : 100
    }
  } ],
  "tab" : "CONTENT",
  "expanded" : false,
  "type" : "group",
  "default" : {
    "image_or_icon" : "image",
    "icon_text" : "<i class=\"themifyicon ti-check-box\"></i>",
    "icon_color" : {
      "color" : "#fe5150",
      "opacity" : 100
    },
    "image" : {
      "size_type" : "auto",
      "src" : "https://2720327.fs1.hubspotusercontent-na1.net/hubfs/2720327/Assets%20-%20Axacus/Images/Right-Tick.png",
      "alt" : "Right-Tick",
      "loading" : "lazy",
      "width" : 31,
      "height" : 34,
      "max_width" : 31,
      "max_height" : 34
    },
    "title" : "We’re Certified",
    "title_color" : {
      "color" : "#333652",
      "opacity" : 100
    },
    "text" : "<p>We are awarded &amp; certified by FDAS foundation</p>",
    "text_color" : {
      "color" : "#7a8a9e",
      "opacity" : 100
    }
  }
}, {
  "id" : "4720852e-ebdb-011c-edf1-38fcea64560e",
  "name" : "button_group",
  "display_width" : null,
  "label" : "Button Group",
  "required" : false,
  "locked" : false,
  "occurrence" : {
    "min" : null,
    "max" : null,
    "sorting_label_field" : "1053240e-8a4a-a00d-2a9f-03ed980e5a28",
    "default" : null
  },
  "children" : [ {
    "id" : "df5fc78a-4b1e-baf4-0e86-f3b631a633a0",
    "name" : "button_options",
    "display_width" : null,
    "label" : "Button Options",
    "required" : false,
    "locked" : false,
    "display" : "select",
    "choices" : [ [ "primartbtn", "Primary Button" ], [ "secbutton", "Secondary Button" ] ],
    "multiple" : false,
    "reordering_enabled" : true,
    "preset" : null,
    "type" : "choice",
    "default" : "primartbtn"
  }, {
    "id" : "80aa86e3-f6dd-d4b2-c079-22940d3b0551",
    "name" : "button_link",
    "display_width" : null,
    "label" : "Button Link",
    "required" : false,
    "locked" : false,
    "supported_types" : [ "EXTERNAL", "CONTENT", "FILE", "EMAIL_ADDRESS", "BLOG" ],
    "show_advanced_rel_options" : false,
    "type" : "link",
    "default" : {
      "url" : {
        "content_id" : null,
        "type" : "EXTERNAL",
        "href" : ""
      },
      "open_in_new_tab" : false,
      "no_follow" : false
    }
  }, {
    "id" : "1053240e-8a4a-a00d-2a9f-03ed980e5a28",
    "name" : "button_text",
    "display_width" : null,
    "label" : "Button Text",
    "required" : false,
    "locked" : false,
    "validation_regex" : "",
    "allow_new_line" : false,
    "show_emoji_picker" : false,
    "type" : "text",
    "default" : "GREAT IN TOUCH"
  } ],
  "tab" : "CONTENT",
  "expanded" : false,
  "type" : "group",
  "default" : {
    "button_options" : "primartbtn",
    "button_link" : {
      "url" : {
        "content_id" : null,
        "type" : "EXTERNAL",
        "href" : ""
      },
      "open_in_new_tab" : false,
      "no_follow" : false
    },
    "button_text" : "GREAT IN TOUCH"
  }
} ]