{
  "global" : false,
  "icon" : "fontawesome-5.14.0:Address%20Book",
  "host_template_types" : [ "PAGE", "BLOG_POST", "BLOG_LISTING", "QUOTE" ],
  "module_id" : 77525383550,
  "label" : "Contact Us Section - Bizphile",
  "is_available_for_new_content" : true
}