[ {
  "id" : "9fb4c08f-7f4d-8330-8b60-9d92cb6621c4",
  "name" : "style",
  "display_width" : null,
  "label" : "Style",
  "required" : false,
  "locked" : false,
  "children" : [ {
    "id" : "ace56986-e770-15d9-ef0e-1581fe44ba23",
    "name" : "background_options",
    "display_width" : null,
    "label" : "Background Options",
    "required" : false,
    "locked" : false,
    "display" : "select",
    "choices" : [ [ "background_color", "Background Color" ], [ "background_image", "Background Image" ], [ "background_gradient", "Background Gradient" ] ],
    "multiple" : false,
    "reordering_enabled" : true,
    "preset" : null,
    "type" : "choice",
    "default" : "background_color"
  }, {
    "id" : "8636dc85-341f-57d2-4e55-414ba0212369",
    "name" : "background_color",
    "display_width" : null,
    "label" : "Background Color",
    "required" : false,
    "locked" : false,
    "visibility" : {
      "controlling_field" : "ace56986-e770-15d9-ef0e-1581fe44ba23",
      "controlling_field_path" : null,
      "controlling_value_regex" : "background_color",
      "property" : null,
      "operator" : "MATCHES_REGEX",
      "access" : null,
      "hidden_subfields" : null
    },
    "type" : "color",
    "default" : {
      "color" : "#233645",
      "opacity" : 100
    }
  }, {
    "id" : "71773d80-15e1-c1c7-bdda-60b75d66f4b3",
    "name" : "background_image",
    "display_width" : null,
    "label" : "Background image",
    "required" : false,
    "locked" : false,
    "visibility" : {
      "controlling_field" : "ace56986-e770-15d9-ef0e-1581fe44ba23",
      "controlling_field_path" : null,
      "controlling_value_regex" : "background_image",
      "property" : null,
      "operator" : "MATCHES_REGEX",
      "access" : null,
      "hidden_subfields" : null
    },
    "type" : "backgroundimage",
    "default" : {
      "src" : "",
      "background_position" : "MIDDLE_CENTER",
      "background_size" : "cover"
    }
  }, {
    "id" : "7af78e5a-eff7-0d09-d99c-55346f14a7bc",
    "name" : "background_gradient",
    "display_width" : null,
    "label" : "Background Gradient",
    "required" : false,
    "locked" : false,
    "visibility" : {
      "controlling_field" : "ace56986-e770-15d9-ef0e-1581fe44ba23",
      "controlling_field_path" : null,
      "controlling_value_regex" : "background_gradient",
      "property" : null,
      "operator" : "MATCHES_REGEX",
      "access" : null,
      "hidden_subfields" : null
    },
    "type" : "gradient",
    "default" : { }
  }, {
    "id" : "544eae94-2181-d633-54f3-f11a22c3b682",
    "name" : "spacing_desktop_",
    "display_width" : null,
    "label" : "Spacing [ Desktop ]",
    "required" : false,
    "locked" : false,
    "type" : "spacing",
    "default" : {
      "padding" : {
        "top" : {
          "value" : 290,
          "units" : "px"
        },
        "bottom" : {
          "value" : 89,
          "units" : "px"
        },
        "left" : {
          "value" : 15,
          "units" : "px"
        },
        "right" : {
          "value" : 15,
          "units" : "px"
        }
      }
    }
  }, {
    "id" : "350b029b-e3d4-efb2-27b8-6a78c829be51",
    "name" : "spacing_tablet_",
    "display_width" : null,
    "label" : "Spacing [ Tablet ]",
    "required" : false,
    "locked" : false,
    "type" : "spacing",
    "default" : {
      "padding" : {
        "top" : {
          "value" : 40,
          "units" : "px"
        },
        "bottom" : {
          "value" : 60,
          "units" : "px"
        },
        "left" : {
          "value" : 0,
          "units" : "px"
        },
        "right" : {
          "value" : 0,
          "units" : "px"
        }
      }
    }
  }, {
    "id" : "daef047c-1304-2d96-ada3-42116bd0368a",
    "name" : "spacing_mobile_",
    "display_width" : null,
    "label" : "Spacing [ Mobile ]",
    "required" : false,
    "locked" : false,
    "type" : "spacing",
    "default" : {
      "padding" : {
        "top" : {
          "value" : 20,
          "units" : "px"
        },
        "bottom" : {
          "value" : 40,
          "units" : "px"
        },
        "left" : {
          "value" : 0,
          "units" : "px"
        },
        "right" : {
          "value" : 0,
          "units" : "px"
        }
      }
    }
  }, {
    "id" : "82ecc154-891c-225a-dbc6-92fc69781dba",
    "name" : "add_overlay_",
    "display_width" : null,
    "label" : "Add Overlay?",
    "required" : false,
    "locked" : false,
    "display" : "checkbox",
    "type" : "boolean",
    "default" : false
  }, {
    "id" : "2402b680-6747-8301-0724-1a01eca93224",
    "name" : "overlay_color",
    "display_width" : null,
    "label" : "Overlay Color",
    "required" : false,
    "locked" : false,
    "visibility" : {
      "controlling_field" : "82ecc154-891c-225a-dbc6-92fc69781dba",
      "controlling_field_path" : null,
      "controlling_value_regex" : "true",
      "property" : null,
      "operator" : "EQUAL",
      "access" : null,
      "hidden_subfields" : null
    },
    "type" : "color",
    "default" : {
      "color" : "#fff",
      "opacity" : 0
    }
  } ],
  "tab" : "STYLE",
  "expanded" : false,
  "type" : "group",
  "default" : {
    "background_options" : "background_color",
    "background_color" : {
      "color" : "#233645",
      "opacity" : 100
    },
    "background_image" : {
      "src" : "",
      "background_position" : "MIDDLE_CENTER",
      "background_size" : "cover"
    },
    "background_gradient" : { },
    "spacing_desktop_" : {
      "padding" : {
        "top" : {
          "value" : 290,
          "units" : "px"
        },
        "bottom" : {
          "value" : 89,
          "units" : "px"
        },
        "left" : {
          "value" : 15,
          "units" : "px"
        },
        "right" : {
          "value" : 15,
          "units" : "px"
        }
      }
    },
    "spacing_tablet_" : {
      "padding" : {
        "top" : {
          "value" : 40,
          "units" : "px"
        },
        "bottom" : {
          "value" : 60,
          "units" : "px"
        },
        "left" : {
          "value" : 0,
          "units" : "px"
        },
        "right" : {
          "value" : 0,
          "units" : "px"
        }
      }
    },
    "spacing_mobile_" : {
      "padding" : {
        "top" : {
          "value" : 20,
          "units" : "px"
        },
        "bottom" : {
          "value" : 40,
          "units" : "px"
        },
        "left" : {
          "value" : 0,
          "units" : "px"
        },
        "right" : {
          "value" : 0,
          "units" : "px"
        }
      }
    },
    "add_overlay_" : false,
    "overlay_color" : {
      "color" : "#fff",
      "opacity" : 0
    }
  }
}, {
  "id" : "f79378b2-8792-0b5f-c699-f93cef72a22c",
  "name" : "counter_group",
  "display_width" : null,
  "label" : "Counter Group",
  "required" : false,
  "locked" : false,
  "occurrence" : {
    "min" : null,
    "max" : null,
    "sorting_label_field" : "b9172d0c-ca7c-ab3a-af35-c90d0d49ad17",
    "default" : null
  },
  "children" : [ {
    "id" : "1ddef076-7d6e-0895-0716-a493fb973470",
    "name" : "image_or_icon_code",
    "display_width" : null,
    "label" : "Image OR Icon Code",
    "required" : false,
    "locked" : false,
    "display" : "select",
    "choices" : [ [ "image", "Image" ], [ "icon", "Icon" ] ],
    "multiple" : false,
    "reordering_enabled" : true,
    "preset" : null,
    "type" : "choice",
    "default" : "icon"
  }, {
    "id" : "8faffba7-3cb0-8910-f0e8-2351254239b8",
    "name" : "logo",
    "display_width" : null,
    "label" : "Image",
    "required" : false,
    "locked" : false,
    "visibility" : {
      "controlling_field" : "1ddef076-7d6e-0895-0716-a493fb973470",
      "controlling_field_path" : null,
      "controlling_value_regex" : "image",
      "property" : null,
      "operator" : "MATCHES_REGEX",
      "access" : null,
      "hidden_subfields" : null
    },
    "responsive" : true,
    "resizable" : true,
    "show_loading" : false,
    "type" : "image",
    "default" : {
      "size_type" : "auto",
      "src" : "https://2720327.fs1.hubspotusercontent-na1.net/hubfs/2720327/chub_backup/Logo.png",
      "alt" : "Logo",
      "loading" : "lazy",
      "width" : 610,
      "height" : 611,
      "max_width" : 610,
      "max_height" : 611
    }
  }, {
    "id" : "a19f2d98-195d-9768-9eaf-c1df96aff780",
    "name" : "icon_code",
    "display_width" : null,
    "label" : "Icon Code",
    "required" : false,
    "locked" : false,
    "validation_regex" : "",
    "visibility" : {
      "controlling_field" : "1ddef076-7d6e-0895-0716-a493fb973470",
      "controlling_field_path" : null,
      "controlling_value_regex" : "icon",
      "property" : null,
      "operator" : "MATCHES_REGEX",
      "access" : null,
      "hidden_subfields" : null
    },
    "allow_new_line" : false,
    "show_emoji_picker" : false,
    "type" : "text",
    "default" : "<i class=\"kw_axacus flaticon-bussiness-man-1\"></i>"
  }, {
    "id" : "e32c4fce-d460-1403-a640-1ce779c36149",
    "name" : "counter",
    "display_width" : null,
    "label" : "Counter",
    "required" : false,
    "locked" : false,
    "validation_regex" : "",
    "allow_new_line" : false,
    "show_emoji_picker" : false,
    "type" : "text",
    "default" : "8965"
  }, {
    "id" : "0cfa79a8-b7ed-4b97-4906-72e7ca731e1e",
    "name" : "counter_text",
    "display_width" : null,
    "label" : "Counter Text",
    "required" : false,
    "locked" : false,
    "validation_regex" : "",
    "allow_new_line" : false,
    "show_emoji_picker" : false,
    "type" : "text",
    "default" : "K"
  }, {
    "id" : "1ef70323-0b71-fee0-a8fc-458749390bdd",
    "name" : "number_color",
    "display_width" : null,
    "label" : "Counter Color",
    "required" : false,
    "locked" : false,
    "type" : "color",
    "default" : {
      "color" : "#ffffff",
      "opacity" : 100
    }
  }, {
    "id" : "b9172d0c-ca7c-ab3a-af35-c90d0d49ad17",
    "name" : "text",
    "display_width" : null,
    "label" : "Text",
    "required" : false,
    "locked" : false,
    "validation_regex" : "",
    "allow_new_line" : false,
    "show_emoji_picker" : false,
    "type" : "text",
    "default" : "Delivered Packages"
  }, {
    "id" : "a0be42fc-abfa-0c50-ea24-db9b8e693d15",
    "name" : "text_color",
    "display_width" : null,
    "label" : "Text Color",
    "required" : false,
    "locked" : false,
    "type" : "color",
    "default" : {
      "color" : "#ffffff",
      "opacity" : 80
    }
  }, {
    "id" : "23ea53e3-3ea7-ae8a-155c-e4c7cb7e71b7",
    "name" : "icon_color",
    "display_width" : null,
    "label" : "Icon Color",
    "required" : false,
    "locked" : false,
    "type" : "color",
    "default" : {
      "color" : "#fe5150",
      "opacity" : 100
    }
  } ],
  "tab" : "CONTENT",
  "expanded" : false,
  "type" : "group",
  "default" : {
    "image_or_icon_code" : "icon",
    "logo" : {
      "size_type" : "auto",
      "src" : "https://2720327.fs1.hubspotusercontent-na1.net/hubfs/2720327/chub_backup/Logo.png",
      "alt" : "Logo",
      "loading" : "lazy",
      "width" : 610,
      "height" : 611,
      "max_width" : 610,
      "max_height" : 611
    },
    "icon_code" : "<i class=\"kw_axacus flaticon-bussiness-man-1\"></i>",
    "counter" : "8965",
    "counter_text" : "K",
    "number_color" : {
      "color" : "#ffffff",
      "opacity" : 100
    },
    "text" : "Delivered Packages",
    "text_color" : {
      "color" : "#ffffff",
      "opacity" : 80
    },
    "icon_color" : {
      "color" : "#fe5150",
      "opacity" : 100
    }
  }
} ]