{
  "global" : false,
  "icon" : "fontawesome-5.14.0:Link:SOLID",
  "host_template_types" : [ "PAGE", "BLOG_POST", "BLOG_LISTING" ],
  "module_id" : 75826040983,
  "label" : "social-follow-Bizphile",
  "is_available_for_new_content" : true
}