{
  "global" : false,
  "icon" : "fontawesome-5.14.0:Newspaper:SOLID",
  "host_template_types" : [ "PAGE", "BLOG_POST", "BLOG_LISTING", "QUOTE" ],
  "module_id" : 76875842895,
  "label" : "News Corner Section - Bizphile",
  "is_available_for_new_content" : true
}