[ {
  "id" : "9fb4c08f-7f4d-8330-8b60-9d92cb6621c4",
  "name" : "style",
  "display_width" : null,
  "label" : "Style",
  "required" : false,
  "locked" : false,
  "children" : [ {
    "id" : "ace56986-e770-15d9-ef0e-1581fe44ba23",
    "name" : "background_options",
    "display_width" : null,
    "label" : "Background Options",
    "required" : false,
    "locked" : false,
    "display" : "select",
    "choices" : [ [ "background_color", "Background Color" ], [ "background_image", "Background Image" ], [ "background_gradient", "Background Gradient" ] ],
    "multiple" : false,
    "reordering_enabled" : true,
    "preset" : null,
    "type" : "choice"
  }, {
    "id" : "8636dc85-341f-57d2-4e55-414ba0212369",
    "name" : "background_color",
    "display_width" : null,
    "label" : "Background Color",
    "required" : false,
    "locked" : false,
    "visibility" : {
      "controlling_field" : "ace56986-e770-15d9-ef0e-1581fe44ba23",
      "controlling_field_path" : null,
      "controlling_value_regex" : "background_color",
      "property" : null,
      "operator" : "MATCHES_REGEX",
      "access" : null,
      "hidden_subfields" : null
    },
    "type" : "color",
    "default" : {
      "color" : "#fff",
      "opacity" : 0
    }
  }, {
    "id" : "71773d80-15e1-c1c7-bdda-60b75d66f4b3",
    "name" : "background_image",
    "display_width" : null,
    "label" : "Background image",
    "required" : false,
    "locked" : false,
    "visibility" : {
      "controlling_field" : "ace56986-e770-15d9-ef0e-1581fe44ba23",
      "controlling_field_path" : null,
      "controlling_value_regex" : "background_image",
      "property" : null,
      "operator" : "MATCHES_REGEX",
      "access" : null,
      "hidden_subfields" : null
    },
    "type" : "backgroundimage",
    "default" : {
      "src" : "",
      "background_position" : "MIDDLE_CENTER",
      "background_size" : "cover"
    }
  }, {
    "id" : "7af78e5a-eff7-0d09-d99c-55346f14a7bc",
    "name" : "background_gradient",
    "display_width" : null,
    "label" : "Background Gradient",
    "required" : false,
    "locked" : false,
    "visibility" : {
      "controlling_field" : "ace56986-e770-15d9-ef0e-1581fe44ba23",
      "controlling_field_path" : null,
      "controlling_value_regex" : "background_gradient",
      "property" : null,
      "operator" : "MATCHES_REGEX",
      "access" : null,
      "hidden_subfields" : null
    },
    "type" : "gradient",
    "default" : { }
  }, {
    "id" : "544eae94-2181-d633-54f3-f11a22c3b682",
    "name" : "spacing_desktop_",
    "display_width" : null,
    "label" : "Spacing [ Desktop ]",
    "required" : false,
    "locked" : false,
    "type" : "spacing",
    "default" : { }
  }, {
    "id" : "350b029b-e3d4-efb2-27b8-6a78c829be51",
    "name" : "spacing_tablet_",
    "display_width" : null,
    "label" : "Spacing [ Tablet ]",
    "required" : false,
    "locked" : false,
    "type" : "spacing",
    "default" : { }
  }, {
    "id" : "daef047c-1304-2d96-ada3-42116bd0368a",
    "name" : "spacing_mobile_",
    "display_width" : null,
    "label" : "Spacing [ Mobile ]",
    "required" : false,
    "locked" : false,
    "type" : "spacing",
    "default" : { }
  }, {
    "id" : "82ecc154-891c-225a-dbc6-92fc69781dba",
    "name" : "add_overlay_",
    "display_width" : null,
    "label" : "Add Overlay?",
    "required" : false,
    "locked" : false,
    "display" : "checkbox",
    "type" : "boolean",
    "default" : false
  }, {
    "id" : "2402b680-6747-8301-0724-1a01eca93224",
    "name" : "overlay_color",
    "display_width" : null,
    "label" : "Overlay Color",
    "required" : false,
    "locked" : false,
    "visibility" : {
      "controlling_field" : "82ecc154-891c-225a-dbc6-92fc69781dba",
      "controlling_field_path" : null,
      "controlling_value_regex" : "true",
      "property" : null,
      "operator" : "EQUAL",
      "access" : null,
      "hidden_subfields" : null
    },
    "type" : "color",
    "default" : {
      "color" : "#fff",
      "opacity" : 0
    }
  } ],
  "tab" : "STYLE",
  "expanded" : false,
  "type" : "group",
  "default" : {
    "background_color" : {
      "color" : "#fff",
      "opacity" : 0
    },
    "background_image" : {
      "src" : "",
      "background_position" : "MIDDLE_CENTER",
      "background_size" : "cover"
    },
    "background_gradient" : { },
    "spacing_desktop_" : { },
    "spacing_tablet_" : { },
    "spacing_mobile_" : { },
    "add_overlay_" : false,
    "overlay_color" : {
      "color" : "#fff",
      "opacity" : 0
    }
  }
}, {
  "id" : "d2859827-6e4c-8676-7f3f-7c9eb916d92b",
  "name" : "sub_title",
  "display_width" : null,
  "label" : "Sub Title",
  "required" : false,
  "locked" : false,
  "validation_regex" : "",
  "allow_new_line" : false,
  "show_emoji_picker" : false,
  "type" : "text",
  "default" : "TESTIMONIALS"
}, {
  "id" : "f077f9ab-2908-d5ce-eefe-669ea911630c",
  "name" : "sub_title_color",
  "display_width" : null,
  "label" : "Sub Title Color",
  "required" : false,
  "locked" : false,
  "type" : "color",
  "default" : {
    "color" : "#fe5150",
    "opacity" : 100
  }
}, {
  "id" : "5dbbddc5-64ef-8990-a3b6-bc239969d98a",
  "name" : "title",
  "display_width" : null,
  "label" : "Title",
  "required" : false,
  "locked" : false,
  "validation_regex" : "",
  "allow_new_line" : false,
  "show_emoji_picker" : false,
  "type" : "text",
  "default" : "Lorem ipsum"
}, {
  "id" : "b3c92b1e-36f9-f617-6e46-c05261daafe0",
  "name" : "title_color",
  "display_width" : null,
  "label" : "Title Color",
  "required" : false,
  "locked" : false,
  "type" : "color",
  "default" : {
    "color" : "#333652",
    "opacity" : 100
  }
}, {
  "id" : "fe4567df-7200-5a51-1c6e-4d734cb0e26b",
  "name" : "text",
  "display_width" : null,
  "label" : "Text",
  "required" : false,
  "locked" : false,
  "type" : "richtext",
  "default" : "<p>We are specialists in both economics and information technolo full range of talent to creating the perfect solution for eds.</p>"
}, {
  "id" : "60dc0cbb-4196-1bce-88b0-d590609d045a",
  "name" : "text_color",
  "display_width" : null,
  "label" : "Text Color",
  "required" : false,
  "locked" : false,
  "type" : "color",
  "default" : {
    "color" : "#7a8a9e",
    "opacity" : 100
  }
}, {
  "id" : "e5038dd3-299c-52a1-2e21-f8fc3df914fc",
  "name" : "testimonial_group",
  "display_width" : null,
  "label" : "Testimonial Group",
  "required" : false,
  "locked" : false,
  "occurrence" : {
    "min" : null,
    "max" : null,
    "sorting_label_field" : null,
    "default" : null
  },
  "children" : [ {
    "id" : "2c606df3-f001-a57f-8bb6-817b11457e56",
    "name" : "image",
    "display_width" : null,
    "label" : "Image",
    "required" : false,
    "locked" : false,
    "responsive" : true,
    "resizable" : true,
    "show_loading" : false,
    "type" : "image",
    "default" : {
      "size_type" : "auto",
      "src" : "https://2720327.fs1.hubspotusercontent-na1.net/hubfs/2720327/Assets%20-%20Axacus/Images/cheerful-indian-businessman-smiling-closeup-portrait-jobs-career-campaign_53876-129417-1.png",
      "alt" : "cheerful-indian-businessman-smiling-closeup-portrait-jobs-career-campaign_53876-129417-1",
      "loading" : "lazy",
      "width" : 711,
      "height" : 600,
      "max_width" : 711,
      "max_height" : 600
    }
  }, {
    "id" : "17de0b3f-eed5-43cf-0c47-67b5cf7f5cfd",
    "name" : "star_icon_group",
    "display_width" : null,
    "label" : "Star Icon Group",
    "required" : false,
    "locked" : false,
    "occurrence" : {
      "min" : null,
      "max" : null,
      "sorting_label_field" : null,
      "default" : null
    },
    "children" : [ {
      "id" : "2b763147-547e-2b50-2aff-b667b3a96e92",
      "name" : "star_icon_code",
      "display_width" : null,
      "label" : "Star Icon Code",
      "required" : false,
      "locked" : false,
      "validation_regex" : "",
      "allow_new_line" : false,
      "show_emoji_picker" : false,
      "type" : "text",
      "default" : "<i class=\"tm-axacus-icon-star-1 tm-active\"></i>"
    } ],
    "tab" : "CONTENT",
    "expanded" : false,
    "type" : "group",
    "default" : {
      "star_icon_code" : "<i class=\"tm-axacus-icon-star-1 tm-active\"></i>"
    }
  }, {
    "id" : "8414edd6-b9e2-f266-ccd7-567af870b526",
    "name" : "person_name",
    "display_width" : null,
    "label" : "Person Name",
    "required" : false,
    "locked" : false,
    "validation_regex" : "",
    "allow_new_line" : false,
    "show_emoji_picker" : false,
    "type" : "text",
    "default" : "Raymon Myers"
  }, {
    "id" : "7492fd46-3515-c482-4a56-ff722d320985",
    "name" : "designation",
    "display_width" : null,
    "label" : "Designation",
    "required" : false,
    "locked" : false,
    "validation_regex" : "",
    "allow_new_line" : false,
    "show_emoji_picker" : false,
    "type" : "text",
    "default" : "CEO At Laboratory"
  }, {
    "id" : "a19f8518-2598-4499-76f1-aefcacd0547f",
    "name" : "text",
    "display_width" : null,
    "label" : "Text",
    "required" : false,
    "locked" : false,
    "type" : "richtext",
    "default" : "<p>Analysts have done an excellent job presenting the analysis and insights. I am confident in saying that they have helped move business!</p>"
  } ],
  "tab" : "CONTENT",
  "expanded" : false,
  "type" : "group",
  "default" : {
    "image" : {
      "size_type" : "auto",
      "src" : "https://2720327.fs1.hubspotusercontent-na1.net/hubfs/2720327/Assets%20-%20Axacus/Images/cheerful-indian-businessman-smiling-closeup-portrait-jobs-career-campaign_53876-129417-1.png",
      "alt" : "cheerful-indian-businessman-smiling-closeup-portrait-jobs-career-campaign_53876-129417-1",
      "loading" : "lazy",
      "width" : 711,
      "height" : 600,
      "max_width" : 711,
      "max_height" : 600
    },
    "star_icon_group" : {
      "star_icon_code" : "<i class=\"tm-axacus-icon-star-1 tm-active\"></i>"
    },
    "person_name" : "Raymon Myers",
    "designation" : "CEO At Laboratory",
    "text" : "<p>Analysts have done an excellent job presenting the analysis and insights. I am confident in saying that they have helped move business!</p>"
  }
} ]